{
  "project_info": {
    "project_number": "994730917689",
    "firebase_url": "https://backup-cc047.firebaseio.com",
    "project_id": "backup-cc047",
    "storage_bucket": "backup-cc047.appspot.com"
  },
  "client": [
    {
      "client_info": {
        "mobilesdk_app_id": "1:994730917689:android:d53d4036f244cdb8",
        "android_client_info": {
          "package_name": "com.backup.israel"
        }
      },
      "oauth_client": [
        {
          "client_id": "994730917689-euqb5maa6tibhjitsprh7nkb0aoedaun.apps.googleusercontent.com",
          "client_type": 1,
          "android_info": {
            "package_name": "com.backup.israel",
            "certificate_hash": "898811921741e2b0e038dc1ea228b39d6162e122"
          }
        },
        {
          "client_id": "994730917689-20k9bvaq7q8ue8f6equmuov9i4qbhtms.apps.googleusercontent.com",
          "client_type": 3
        }
      ],
      "api_key": [
        {
          "current_key": "AIzaSyDha_WevFNY4w5PqOBb6zV_mzzJeHMf0kk"
        }
      ],
      "services": {
        "analytics_service": {
          "status": 1
        },
        "appinvite_service": {
          "status": 2,
          "other_platform_oauth_client": [
            {
              "client_id": "994730917689-20k9bvaq7q8ue8f6equmuov9i4qbhtms.apps.googleusercontent.com",
              "client_type": 3
            }
          ]
        },
        "ads_service": {
          "status": 2
        }
      }
    }
  ],
  "configuration_version": "1"
}